<?xml version="1.0" encoding="UTF-8" standalone="no"?>
<!-- Created with Inkscape (http://www.inkscape.org/) -->

<svg
   xmlns:dc="http://purl.org/dc/elements/1.1/"
   xmlns:cc="http://creativecommons.org/ns#"
   xmlns:rdf="http://www.w3.org/1999/02/22-rdf-syntax-ns#"
   xmlns:svg="http://www.w3.org/2000/svg"
   xmlns="http://www.w3.org/2000/svg"
   xmlns:sodipodi="http://sodipodi.sourceforge.net/DTD/sodipodi-0.dtd"
   xmlns:inkscape="http://www.inkscape.org/namespaces/inkscape"
   width="1024"
   height="768"
   id="svg2"
   version="1.1"
   inkscape:version="0.48.1 r9760"
   sodipodi:docname="246.svg"
   inkscape:export-filename="/home/ginger/SparkleShare/documentation/presentations/libreplanet2013/slides/010.png"
   inkscape:export-xdpi="90.062325"
   inkscape:export-ydpi="90.062325">
  <defs
     id="defs4" />
  <sodipodi:namedview
     id="base"
     pagecolor="#ffffff"
     bordercolor="#666666"
     borderopacity="1.0"
     inkscape:pageopacity="0.0"
     inkscape:pageshadow="2"
     inkscape:zoom="0.49497475"
     inkscape:cx="431.17477"
     inkscape:cy="337.6377"
     inkscape:document-units="px"
     inkscape:current-layer="layer1"
     showgrid="false"
     inkscape:window-width="1366"
     inkscape:window-height="744"
     inkscape:window-x="0"
     inkscape:window-y="0"
     inkscape:window-maximized="1"
     showguides="true"
     inkscape:guide-bbox="true">
    <sodipodi:guide
       orientation="1,0"
       position="25.001276,673.01413"
       id="guide3986" />
    <sodipodi:guide
       orientation="0,1"
       position="90.408653,700.03571"
       id="guide3988" />
    <sodipodi:guide
       orientation="1,0"
       position="1000.3571,610.71428"
       id="guide3992" />
  </sodipodi:namedview>
  <metadata
     id="metadata7">
    <rdf:RDF>
      <cc:Work
         rdf:about="">
        <dc:format>image/svg+xml</dc:format>
        <dc:type
           rdf:resource="http://purl.org/dc/dcmitype/StillImage" />
        <dc:title></dc:title>
      </cc:Work>
    </rdf:RDF>
  </metadata>
  <g
     inkscape:label="Layer 1"
     inkscape:groupmode="layer"
     id="layer1"
     transform="translate(0,-284.36218)">
    <rect
       style="opacity:1;fill:#f8034d;fill-opacity:1;stroke:none"
       id="rect3191"
       width="1024"
       height="768"
       x="0"
       y="284.36218" />
    <text
       xml:space="preserve"
       style="font-size:60px;font-style:normal;font-variant:normal;font-weight:bold;font-stretch:normal;line-height:100%;letter-spacing:0px;word-spacing:0px;fill:#000000;fill-opacity:1;stroke:none;font-family:OSP-DIN;-inkscape-font-specification:OSP-DIN Bold"
       x="27.001276"
       y="429.76303"
       id="text3980"
       sodipodi:linespacing="100%"><tspan
         sodipodi:role="line"
         id="tspan3982"
         x="27.001276"
         y="429.76303"
         style="font-size:110px;font-style:normal;font-variant:normal;font-weight:bold;font-stretch:normal;line-height:100%;font-family:OSP-DIN;-inkscape-font-specification:OSP-DIN Bold">5. DEFINING AND MEASURING:</tspan><tspan
         sodipodi:role="line"
         x="27.001276"
         y="495.19089"
         style="font-size:50px;font-style:normal;font-variant:normal;font-weight:bold;font-stretch:normal;line-height:100%;font-family:OSP-DIN;-inkscape-font-specification:OSP-DIN Bold"
         id="tspan6025">THE GOAL,</tspan><tspan
         sodipodi:role="line"
         x="27.001276"
         y="545.19086"
         style="font-size:50px;font-style:normal;font-variant:normal;font-weight:bold;font-stretch:normal;line-height:100%;font-family:OSP-DIN;-inkscape-font-specification:OSP-DIN Bold"
         id="tspan6076">IN THE CASE OF LIBRE GRAPHICS MAGAZINE,</tspan><tspan
         sodipodi:role="line"
         x="27.001276"
         y="595.19086"
         style="font-size:50px;font-style:normal;font-variant:normal;font-weight:bold;font-stretch:normal;line-height:100%;font-family:OSP-DIN;-inkscape-font-specification:OSP-DIN Bold"
         id="tspan6046" /></text>
  </g>
</svg>
