<?xml version="1.0" encoding="UTF-8" standalone="no"?>
<!-- Created with Inkscape (http://www.inkscape.org/) -->

<svg
   xmlns:dc="http://purl.org/dc/elements/1.1/"
   xmlns:cc="http://creativecommons.org/ns#"
   xmlns:rdf="http://www.w3.org/1999/02/22-rdf-syntax-ns#"
   xmlns:svg="http://www.w3.org/2000/svg"
   xmlns="http://www.w3.org/2000/svg"
   xmlns:xlink="http://www.w3.org/1999/xlink"
   xmlns:sodipodi="http://sodipodi.sourceforge.net/DTD/sodipodi-0.dtd"
   xmlns:inkscape="http://www.inkscape.org/namespaces/inkscape"
   width="1024px"
   height="768px"
   id="svg2816"
   version="1.1"
   inkscape:version="0.47 r22583"
   sodipodi:docname="166.svg"
   inkscape:export-filename="/home/ginger/FLOSS/LibreGraphicsMagazine/presentations/165.png"
   inkscape:export-xdpi="90"
   inkscape:export-ydpi="90">
  <defs
     id="defs2818">
    <inkscape:perspective
       sodipodi:type="inkscape:persp3d"
       inkscape:vp_x="0 : 384 : 1"
       inkscape:vp_y="0 : 1000 : 0"
       inkscape:vp_z="1024 : 384 : 1"
       inkscape:persp3d-origin="512 : 256 : 1"
       id="perspective2824" />
    <inkscape:perspective
       sodipodi:type="inkscape:persp3d"
       inkscape:vp_x="0 : 0.5 : 1"
       inkscape:vp_y="0 : 1000 : 0"
       inkscape:vp_z="1 : 0.5 : 1"
       inkscape:persp3d-origin="0.5 : 0.33333333 : 1"
       id="perspective3594" />
    <clipPath
       id="clipPath4082"
       clipPathUnits="userSpaceOnUse">
      <rect
         y="-167.11787"
         x="-157.48949"
         height="141.32704"
         width="100.69326"
         id="rect4084"
         style="fill:#bfa97c;fill-opacity:1;stroke:none" />
    </clipPath>
    <inkscape:perspective
       sodipodi:type="inkscape:persp3d"
       inkscape:vp_x="0 : 0.5 : 1"
       inkscape:vp_y="0 : 1000 : 0"
       inkscape:vp_z="1 : 0.5 : 1"
       inkscape:persp3d-origin="0.5 : 0.33333333 : 1"
       id="perspective3298" />
    <inkscape:perspective
       id="perspective10"
       inkscape:persp3d-origin="372.04724 : 350.78739 : 1"
       inkscape:vp_z="744.09448 : 526.18109 : 1"
       inkscape:vp_y="0 : 1000 : 0"
       inkscape:vp_x="0 : 526.18109 : 1"
       sodipodi:type="inkscape:persp3d" />
    <inkscape:perspective
       id="perspective3336"
       inkscape:persp3d-origin="0.5 : 0.33333333 : 1"
       inkscape:vp_z="1 : 0.5 : 1"
       inkscape:vp_y="0 : 1000 : 0"
       inkscape:vp_x="0 : 0.5 : 1"
       sodipodi:type="inkscape:persp3d" />
  </defs>
  <sodipodi:namedview
     id="base"
     pagecolor="#ffffff"
     bordercolor="#666666"
     borderopacity="1.0"
     inkscape:pageopacity="0.0"
     inkscape:pageshadow="2"
     inkscape:zoom="0.64322917"
     inkscape:cx="327.12738"
     inkscape:cy="366.69673"
     inkscape:current-layer="layer1"
     inkscape:document-units="px"
     showgrid="false"
     showguides="true"
     inkscape:guide-bbox="true"
     inkscape:window-width="1280"
     inkscape:window-height="746"
     inkscape:window-x="0"
     inkscape:window-y="32"
     inkscape:window-maximized="1">
    <sodipodi:guide
       orientation="0,1"
       position="143.61134,707.95142"
       id="guide3314" />
    <sodipodi:guide
       orientation="1,0"
       position="38.672065,695.31984"
       id="guide3316" />
  </sodipodi:namedview>
  <metadata
     id="metadata2821">
    <rdf:RDF>
      <cc:Work
         rdf:about="">
        <dc:format>image/svg+xml</dc:format>
        <dc:type
           rdf:resource="http://purl.org/dc/dcmitype/StillImage" />
        <dc:title></dc:title>
      </cc:Work>
    </rdf:RDF>
  </metadata>
  <g
     id="layer1"
     inkscape:label="Layer 1"
     inkscape:groupmode="layer">
    <g
       id="layer2"
       inkscape:label="Image"
       style="display:none"
       transform="translate(-373.3613,-410.09813)">
      <image
         y="-172.20924"
         x="-326.07144"
         id="image3300"
         height="392"
         width="275"
         xlink:href="file:///home/rlafuente/work/lgmag/assets/lgmag_0_cover.jpg"
         clip-path="url(#clipPath4082)"
         transform="matrix(4.6381406,0,0,4.6381406,754.79635,791.84608)"
         style="opacity:0.81215473" />
    </g>
    <rect
       y="3.5034475e-14"
       x="0"
       height="768"
       width="1024"
       id="rect4132"
       style="fill:#ccff00;fill-opacity:1;stroke:none" />
    <text
       xml:space="preserve"
       style="font-size:60px;font-style:normal;font-variant:normal;font-weight:bold;font-stretch:normal;fill:#000000;fill-opacity:1;stroke:none;font-family:PropCourierSans;-inkscape-font-specification:'10.15 Saturday Night BRK Bold'"
       x="38.672066"
       y="96.680161"
       id="text2833"><tspan
         sodipodi:role="line"
         x="38.672066"
         y="96.680161"
         id="tspan2856">TRIUMPHS:</tspan><tspan
         sodipodi:role="line"
         x="38.672066"
         y="171.68016"
         id="tspan6218">WE'RE ALSO PRETTY PLEASED</tspan><tspan
         sodipodi:role="line"
         x="38.672066"
         y="246.68016"
         id="tspan6276">TO DISCOVER THAT </tspan></text>
  </g>
</svg>
