<?xml version="1.0" encoding="UTF-8" standalone="no"?>
<!-- Created with Inkscape (http://www.inkscape.org/) -->

<svg
   xmlns:dc="http://purl.org/dc/elements/1.1/"
   xmlns:cc="http://creativecommons.org/ns#"
   xmlns:rdf="http://www.w3.org/1999/02/22-rdf-syntax-ns#"
   xmlns:svg="http://www.w3.org/2000/svg"
   xmlns="http://www.w3.org/2000/svg"
   xmlns:sodipodi="http://sodipodi.sourceforge.net/DTD/sodipodi-0.dtd"
   xmlns:inkscape="http://www.inkscape.org/namespaces/inkscape"
   width="1024px"
   height="768px"
   id="svg2985"
   version="1.1"
   inkscape:version="0.48.1 r9760"
   sodipodi:docname="New document 2">
  <defs
     id="defs2987" />
  <sodipodi:namedview
     id="base"
     pagecolor="#ffffff"
     bordercolor="#666666"
     borderopacity="1.0"
     inkscape:pageopacity="0.0"
     inkscape:pageshadow="2"
     inkscape:zoom="0.5"
     inkscape:cx="512"
     inkscape:cy="382"
     inkscape:current-layer="layer1"
     inkscape:document-units="px"
     showgrid="false"
     inkscape:window-width="1366"
     inkscape:window-height="744"
     inkscape:window-x="0"
     inkscape:window-y="0"
     inkscape:window-maximized="1" />
  <metadata
     id="metadata2990">
    <rdf:RDF>
      <cc:Work
         rdf:about="">
        <dc:format>image/svg+xml</dc:format>
        <dc:type
           rdf:resource="http://purl.org/dc/dcmitype/StillImage" />
        <dc:title></dc:title>
      </cc:Work>
    </rdf:RDF>
  </metadata>
  <g
     id="layer1"
     inkscape:label="Layer 1"
     inkscape:groupmode="layer">
    <path
       sodipodi:nodetypes="cccccccc"
       inkscape:connector-curvature="0"
       id="path25017"
       d="m 41.4328,27.05787 38.857812,0 0,183.82185 73.925618,0 0,38.85756 -112.78343,0 0,-1.92489 c 0,-73.58486 0,-147.16966 0,-220.75452 z"
       style="fill:#000000;stroke:none" />
    <path
       inkscape:connector-curvature="0"
       id="path25015"
       d="m 175.56997,27.05787 38.91776,0 0,222.67941 -38.91776,0 0,-222.67941 z"
       style="fill:#000000;stroke:none" />
    <path
       sodipodi:nodetypes="ccccccscscccccssccccssscc"
       inkscape:connector-curvature="0"
       id="path25013"
       d="m 235.82668,27.067533 0,183.705207 0,38.98271 38.94748,0 12.61827,0 0,-0.0684 c 33.9033,0 70.4932,-15.67603 70.4932,-66.15788 0,-31.52307 -12.02423,-49.30535 -30.55881,-58.19211 11.30207,-9.0518 18.78646,-22.50976 18.78646,-41.661462 0,-36.765913 -22.50095,-56.606012 -54.13306,-56.606012 -18.19313,0 -39.80226,0 -56.15354,0 z m 38.94748,38.982716 1.48035,0 8.60017,0 c 10.02602,0.317508 22.69882,2.776525 22.69882,17.623295 0,19.795346 -22.15825,18.222476 -32.00392,18.222476 -0.25067,0 -0.506,0.061 -0.77542,0.10584 z m 0,90.689441 12.44205,0 c 0.29944,0.0685 0.58282,0.14092 0.84591,0.14092 8.73876,0 31.26373,1.00591 31.26373,26.64645 0,24.25823 -22.08829,27.24562 -31.93342,27.24562 l -12.61827,0 z"
       style="fill:#000000;stroke:none" />
    <path
       sodipodi:nodetypes="ccccccccssccsscccc"
       inkscape:connector-curvature="0"
       id="path25011"
       d="m 372.75972,27.067533 c 0,74.217517 0,148.435087 0,222.652657 l 38.84168,0 0,-93.05096 c 9.28463,0.22605 19.08665,-0.34339 28.19728,0.0685 l 30.10061,92.9805 40.88598,0 -32.60311,-100.84049 c 18.42546,-8.90051 32.18017,-26.30086 32.18017,-57.205249 0,-50.481446 -30.9175,-64.606921 -69.82349,-64.606921 -22.59309,0 -45.18614,0 -67.77912,0 z m 38.84168,38.982716 28.93744,0 c 8.73768,0 31.26371,-0.01726 31.26371,25.624205 0,24.258926 -22.15894,26.223446 -32.00387,26.223446 l 0,-0.14092 -28.19728,0 z"
       style="fill:#000000;stroke:none" />
    <path
       sodipodi:nodetypes="ccccccccccccc"
       inkscape:connector-curvature="0"
       id="path25009"
       d="m 523.84491,27.05787 c 37.59448,0 75.18902,0 112.78344,0 l 0,38.857495 -73.86573,0 0,51.850585 42.76762,0 0,38.91754 -42.76762,0 0,54.19623 73.86573,0 0,38.85756 c -37.59442,0 -75.18896,0 -112.78344,0 0,-74.22649 0,-148.45292 0,-222.67941 z"
       style="fill:#000000;stroke:none" />
    <path
       inkscape:connector-curvature="0"
       id="path25001"
       d="m 103.99005,270.12864 c 50.48185,0 65.08374,36.59364 65.08374,70.4971 l -38.85782,0 c 0,-9.84505 -1.96786,-31.94043 -26.22592,-31.94043 -25.640136,0 -25.624267,22.54099 -25.624267,31.27861 l 0,90.70785 c 0,8.73825 -0.01668,31.27855 25.624267,31.27855 24.25806,0 26.22592,-22.09504 26.22592,-31.94003 l 0,-11.06785 -25.68453,0 0,-38.85755 64.54235,0 0,13.05262 0,36.87278 c 0,33.90311 -14.60189,70.55732 -65.08374,70.55732 -50.481547,0 -64.602133,-30.98923 -64.602133,-69.89584 0,-0.61811 0.04084,-1.16011 0.06011,-1.74417 l 0,-87.21911 c -0.01956,-0.58383 -0.06011,-1.12555 -0.06011,-1.74457 0,-38.9061 14.120586,-69.83528 64.602133,-69.83528 z"
       style="fill:#000000;stroke:none" />
    <path
       sodipodi:nodetypes="ssccccccsssssccsss"
       inkscape:connector-curvature="0"
       id="path24999"
       d="m 411.67186,270.12795 c -50.48168,0 -64.70775,30.91762 -64.60698,69.82349 0.1346,51.97885 0.10584,104.58593 0.10584,156.7768 l 38.87699,0 0,-54.13877 51.84777,0 0,54.13877 38.91214,0 0,-156.28334 c 0,-33.85244 -14.74324,-70.31695 -65.13565,-70.31695 z m 0,38.55972 c 24.25794,0 26.22344,22.08854 26.22344,31.93347 l 0,63.05613 -51.8477,0 0,-63.5848 c 0,0 0,-0.0937 0,-0.14092 0,-8.73756 -0.0173,-31.26376 25.62426,-31.26376 z"
       style="fill:#000000;stroke:none" />
    <path
       sodipodi:nodetypes="ccccccccssccsscccc"
       inkscape:connector-curvature="0"
       id="path24997"
       d="m 189.8299,273.9698 c 0,74.25283 0,148.50566 0,222.75844 l 38.91222,0 0,-93.12149 c 9.23938,-0.0851 19.24864,0.0685 28.19726,0.0685 l 30.10059,92.98045 40.88603,0 -32.60307,-100.87575 c 18.42536,-8.90017 32.18007,-26.30121 32.18007,-57.20519 0,-50.48168 -30.91715,-64.60698 -69.82344,-64.60698 z m 38.91222,38.98277 28.93744,0 c 8.73784,0 31.26372,-0.0172 31.26372,25.62426 0,24.25806 -22.15896,26.22345 -32.0039,26.22345 l 0,-0.10584 -28.19726,0 z"
       style="fill:#000000;stroke:none" />
    <path
       sodipodi:nodetypes="ccccsssccsscccc"
       inkscape:connector-curvature="0"
       id="path24995"
       d="m 498.6957,273.9698 c 0,74.25283 0,148.50566 0,222.75844 l 38.87699,0 0,-93.12149 c 9.27629,-0.0863 19.26007,0.0685 28.26781,0.0685 33.90264,-5.7e-4 70.49312,-14.61882 70.49312,-65.10049 0,-50.48168 -30.95264,-64.60698 -69.85868,-64.60698 -22.5931,0 -45.18614,0 -67.77924,0 z m 38.87699,38.98277 28.90225,0 c 8.73767,0 31.29891,-0.0172 31.29891,25.62426 0,24.25806 -22.08848,26.22345 -31.93335,26.22345 l 0,-0.10584 -28.26781,0 z"
       style="fill:#000000;stroke:none" />
    <path
       sodipodi:nodetypes="sccsssssccssscs"
       inkscape:connector-curvature="0"
       id="path24987"
       d="m 315.4214,513.19924 c 50.4817,0 65.14361,36.59428 65.14361,70.4971 l -38.91789,0 c 0,-9.84505 -1.96775,-31.9402 -26.22572,-31.9402 -25.64062,0 -25.62445,22.54076 -25.62445,31.27849 l 0,90.76825 c 0,8.73756 -0.0167,31.2786 25.62445,31.2786 24.25797,0 26.22572,-22.15537 26.22572,-32.0003 l 0,-15.3989 38.91789,0 0,15.3989 c 0,33.90282 -14.66191,70.55703 -65.14361,70.55703 -50.48173,0 -64.29633,-30.9305 -64.60233,-69.83533 -0.23588,-29.9961 1.05928,-60.82559 0,-90.76825 0,-38.90604 14.1206,-69.83539 64.60233,-69.83539 z"
       style="fill:#000000;stroke:none" />
    <path
       sodipodi:nodetypes="sccsszssccsszss"
       inkscape:connector-curvature="0"
       id="path24985"
       d="m 463.99456,513.19924 c 62.32789,0 65.08365,70.55738 65.08365,70.55738 l -38.85767,0 c 0,-16.28999 -7.19495,-32.00048 -26.22598,-32.00048 -18.68901,0 -25.62443,13.17474 -25.62443,31.27849 0,20.87131 22.40645,21.65375 43.24888,30.52677 20.84243,8.87302 47.4592,25.80994 47.4592,59.51978 0,24.79144 -2.75576,70.55703 -65.08365,70.55703 -64.63349,0 -64.66231,-69.83533 -64.66231,-69.83533 l 39.03788,0 c 0,0 -0.0173,31.2786 25.62443,31.2786 24.25806,0 26.22598,-11.45242 26.22598,-32.0003 0,-21.64984 -33.91335,-26.07625 -51.30898,-34.16591 -17.39558,-8.08972 -39.57931,-17.9228 -39.57931,-55.88064 0,-22.82576 0.0288,-69.83539 64.66231,-69.83539 z"
       style="fill:#000000;stroke:none" />
    <path
       inkscape:connector-curvature="0"
       id="path24983"
       d="m 39.448019,517.0488 38.917764,0 0,90.52769 51.850187,0 0,-90.52769 38.85782,0 0,222.73968 -38.85782,0 0,-93.2945 -51.850187,0 0,93.2945 -38.917764,0 0,-222.73968 z"
       style="fill:#000000;stroke:none" />
    <path
       inkscape:connector-curvature="0"
       id="rect50494"
       d="m 190.54758,517.0488 38.85766,0 0,222.73968 -38.85766,0 0,-222.73968 z"
       style="fill:#000000;stroke:none" />
    <path
       sodipodi:nodetypes="ccccc"
       inkscape:connector-curvature="0"
       id="path25029"
       d="m 169.07379,380.08489 0,116.64335 -21.81277,0 -5.32947,-60.1533 z"
       style="fill:#000000;stroke:none" />
    <g
       id="layer2"
       inkscape:label="Handles"
       style="display:inline"
       transform="translate(-92.56932,-71.71378)" />
    <g
       id="layer3"
       inkscape:label="Points"
       transform="translate(-92.56932,-71.71378)" />
  </g>
</svg>
